Orders from 3.141592653589793238462643383279502884197169399375105820974944592.com

x@3.141592653589793238462643383279502884197169399375105820974944592.com 1057 2 1.20

Orders from able.com

aciohord@able.com 99 1 21.61
amlu@able.com 1014 10 16.57
dxrjmowf@able.com 4 4 6.67
fjxjcvudj@able.com 1020 1 7.34
ggxxpkl@able.com 7 6 8.36
hcda@able.com 2 4 5.59
iitnckl@able.com 1063 6 8.10
kazqfrp@able.com 1067 8 5.99
lvihjou@able.com 1009 5 7.59
obm@able.com 1077 5 19.28
qvdgaijvw@able.com 1033 9 19.04
ryxlmndqt@able.com 1004 5 16.50
vtrrbljp@able.com 100 8 14.27
wcs@able.com 1045 5 9.27
wlko@able.com 1047 3 19.35
wnkue@able.com 10 10 18.68
xacbhhk@able.com 107 1 11.06
xnnofwlt@able.com 1079 10 18.34

Orders from bodge.com

afspqpq@bodge.com 1037 3 13.22
ddjeqvu@bodge.com 1066 1 23.88
dqhdcnvw@bodge.com 1017 10 7.85
fwovyddw@bodge.com 1038 4 23.14
fwzqfjma@bodge.com 101 3 13.71
gafoubu@bodge.com 1052 10 16.71
gyxymze@bodge.com 1022 1 15.51
hkgccna@bodge.com 1048 4 17.62
hlrnunyf@bodge.com 1050 4 22.03
jbq@bodge.com 1082 8 5.37
mgbbuqc@bodge.com 15 2 19.67
muwfjqs@bodge.com 1000 4 6.09
oqmsboag@bodge.com 96 3 5.36
otbbqcw@bodge.com 1030 2 7.92
pleqlwpha@bodge.com 1016 2 6.59
rwsofs@bodge.com 102 7 6.49
urczmgy@bodge.com 1039 7 15.17
vfr@bodge.com 104 3 24.36
vswmdkqtb@bodge.com 20 5 21.89
wcs@bodge.com 97 3 11.26
wdvm@bodge.com 1003 6 18.21
xubumenme@bodge.com 1006 1 10.24

Orders from bodge.com 

uytdlcgd@bodge.com  201 9 21.22

Orders from gmx.net

bppkqtp@gmx.net 1029 10 23.39
criqifpgy@gmx.net 1058 7 16.81
efxsnvu@gmx.net 1059 8 6.54
fojn@gmx.net 1078 5 21.72
hiq@gmx.net 1008 5 20.79
nltcfirj@gmx.net 1043 2 10.96
ozoyve@gmx.net 1044 7 10.32
vqhffbs@gmx.net 103 9 22.64
xvtn@gmx.net 1040 6 8.28

Orders from hotmail.com

eqmrjo@hotmail.com 1046 4 5.30
fufts@hotmail.com 1024 2 8.55
gmlejuuk@hotmail.com 1005 3 24.72
kkyhid@hotmail.com 3 3 9.29
lnmpapq@hotmail.com 8 5 18.67
ozj@hotmail.com 105 2 19.74
qdorxx@hotmail.com 1054 2 12.87
rmydiaj@hotmail.com 1007 4 12.69
tdsneogv@hotmail.com 1055 8 23.13
trwblns@hotmail.com 1000 6 16.90
vjege@hotmail.com 1023 3 8.55
xdp@hotmail.com 1068 9 18.68
ybldb@hotmail.com 5 8 22.84
yeimu@hotmail.com 1011 4 13.08
zriicfs@hotmail.com 1013 10 8.68

Orders from llanfairpwllgwyngyllgogerychwyrndrobwyll-llantysiliogogogoch.com

y@llanfairpwllgwyngyllgogerychwyrndrobwyll-llantysiliogogogoch.com 1064 5 3.00

Orders from widgets.com

chzdfl@widgets.com 1026 6 10.18
dwdwfcgpx@widgets.com 206 7 14.54
dzubd@widgets.com 1036 2 24.34
gruowzgio@widgets.com 1015 5 14.02
guumoq@widgets.com 1001 8 24.36
lpgd@widgets.com 1056 2 24.82
oendt@widgets.com 200 5 14.96
opkmc@widgets.com 9 5 22.88
pqcace@widgets.com 104 7 14.87
qfnxztqr@widgets.com 1027 2 18.14
rcbyn@widgets.com 6 7 14.80
slsplwuiu@widgets.com 1041 2 10.71
tigsi@widgets.com 1025 7 17.84
vey@widgets.com 1049 5 16.22
wctgt@widgets.com 1060 3 13.60
xrjxk@widgets.com 106 4 9.28
yqxnzlgd@widgets.com 95 1 23.94
zbknhk@widgets.com 1042 4 23.68

Orders from yahoo.com

bas@yahoo.com 1051 1 22.97
betokyxh@yahoo.com 1002 1 8.36
bexrampet@yahoo.com 1065 8 15.97
bmyppphau@yahoo.com 1018 4 22.95
bwewpjv@yahoo.com 1034 5 20.36
byebmwsi@yahoo.com 1021 7 8.46
kbbipzzr@yahoo.com 1012 3 7.53
ljxepbpi@yahoo.com 1035 1 17.36
nvbwjck@yahoo.com 1000 7 20.41
oyp@yahoo.com 1 9 13.42
pky@yahoo.com 1028 9 5.25
upy@yahoo.com 1061 4 24.90
uqunu@yahoo.com 1062 6 13.39
usgdhii@yahoo.com 1019 3 7.61
uuzhyvh@yahoo.com 1081 2 10.06
wlrb@yahoo.com 1 7 8.35
xjujjddn@yahoo.com 1032 1 10.37

